{
  "data": [
    {
      "id": 1,
      "attributes": {
        "Annee": 925,
        "createdAt": "2023-10-12T12:45:24.540Z",
        "updatedAt": "2023-10-12T13:31:08.344Z",
        "publishedAt": "2023-10-12T12:57:25.520Z",
        "Texte_microfiction": [
          {
            "type": "paragraph",
            "children": [
              {
                "type": "text",
                "text": "Le froid assomme toute vie, la neige éteint les derniers souffles."
              }
            ]
          }
        ],
        "Mois": "janvier",
        "Jour_du_mois": 1,
        "Auteur": null,
        "Heure": "00h01"
      }
    },
    {
      "id": 2,
      "attributes": {
        "Annee": 2012,
        "createdAt": "2023-10-12T13:03:16.625Z",
        "updatedAt": "2023-10-12T13:31:29.980Z",
        "publishedAt": "2023-10-12T13:13:19.155Z",
        "Texte_microfiction": [
          {
            "type": "paragraph",
            "children": [
              {
                "type": "text",
                "text": "- Bonne année !"
              }
            ]
          }
        ],
        "Mois": "janvier",
        "Jour_du_mois": 1,
        "Auteur": null,
        "Heure": "00h01"
      }
    },
    {
      "id": 3,
      "attributes": {
        "Annee": 1931,
        "createdAt": "2023-10-12T13:03:41.852Z",
        "updatedAt": "2023-10-12T13:31:59.473Z",
        "publishedAt": "2023-10-12T13:13:19.155Z",
        "Texte_microfiction": [
          {
            "type": "paragraph",
            "children": [
              {
                "type": "text",
                "text": "- Bonne année !"
              }
            ]
          }
        ],
        "Mois": "janvier",
        "Jour_du_mois": 1,
        "Auteur": null,
        "Heure": "00h01"
      }
    },
    {
      "id": 4,
      "attributes": {
        "Annee": 2000,
        "createdAt": "2023-10-12T13:04:07.466Z",
        "updatedAt": "2023-10-12T13:30:24.360Z",
        "publishedAt": "2023-10-12T13:04:23.876Z",
        "Texte_microfiction": [
          {
            "type": "paragraph",
            "children": [
              {
                "type": "text",
                "text": "- Je t’aime, je t’aime."
              }
            ]
          }
        ],
        "Mois": "janvier",
        "Jour_du_mois": 1,
        "Auteur": null,
        "Heure": "00h01"
      }
    },
    {
      "id": 5,
      "attributes": {
        "Annee": 1987,
        "createdAt": "2023-10-12T13:04:47.067Z",
        "updatedAt": "2023-10-12T13:32:05.020Z",
        "publishedAt": "2023-10-12T13:04:48.960Z",
        "Texte_microfiction": [
          {
            "type": "paragraph",
            "children": [
              {
                "type": "text",
                "text": "- Foutez moi la paix !"
              }
            ]
          }
        ],
        "Mois": "janvier",
        "Jour_du_mois": 1,
        "Auteur": null,
        "Heure": "00h01"
      }
    },
    {
      "id": 6,
      "attributes": {
        "Annee": 1895,
        "createdAt": "2023-10-12T13:05:18.665Z",
        "updatedAt": "2023-10-12T13:32:10.750Z",
        "publishedAt": "2023-10-12T13:05:19.992Z",
        "Texte_microfiction": [
          {
            "type": "paragraph",
            "children": [
              {
                "type": "text",
                "text": "- Je vous souhaite à tous…"
              }
            ]
          }
        ],
        "Mois": "janvier",
        "Jour_du_mois": 1,
        "Auteur": null,
        "Heure": "00h01"
      }
    },
    {
      "id": 7,
      "attributes": {
        "Annee": 2037,
        "createdAt": "2023-10-12T13:05:38.829Z",
        "updatedAt": "2023-10-12T13:32:17.865Z",
        "publishedAt": "2023-10-12T13:05:39.749Z",
        "Texte_microfiction": [
          {
            "type": "paragraph",
            "children": [
              {
                "type": "text",
                "text": "- Bonne année !"
              }
            ]
          }
        ],
        "Mois": "janvier",
        "Jour_du_mois": 1,
        "Auteur": null,
        "Heure": "00h01"
      }
    },
    {
      "id": 8,
      "attributes": {
        "Annee": 1998,
        "createdAt": "2023-10-12T13:06:05.049Z",
        "updatedAt": "2023-10-12T13:32:23.614Z",
        "publishedAt": "2023-10-12T13:06:06.260Z",
        "Texte_microfiction": [
          {
            "type": "paragraph",
            "children": [
              {
                "type": "text",
                "text": "- Ecoute, t’avais qu’à pas mettre des talons !"
              }
            ]
          }
        ],
        "Mois": "janvier",
        "Jour_du_mois": 1,
        "Auteur": null,
        "Heure": "00h01"
      }
    },
    {
      "id": 9,
      "attributes": {
        "Annee": 2003,
        "createdAt": "2023-10-12T13:06:29.380Z",
        "updatedAt": "2023-10-12T13:32:29.806Z",
        "publishedAt": "2023-10-12T13:06:30.364Z",
        "Texte_microfiction": [
          {
            "type": "paragraph",
            "children": [
              {
                "type": "text",
                "text": "- Fais un vœu !"
              }
            ]
          },
          {
            "type": "paragraph",
            "children": [
              {
                "type": "text",
                "text": "- Un quoi ?"
              }
            ]
          }
        ],
        "Mois": "janvier",
        "Jour_du_mois": 1,
        "Auteur": null,
        "Heure": "00h01"
      }
    },
    {
      "id": 10,
      "attributes": {
        "Annee": 1787,
        "createdAt": "2023-10-12T13:06:59.088Z",
        "updatedAt": "2023-10-12T13:32:35.633Z",
        "publishedAt": "2023-10-12T13:07:00.065Z",
        "Texte_microfiction": [
          {
            "type": "paragraph",
            "children": [
              {
                "type": "text",
                "text": "- Rêvons grand, mes amis, rêvons grand ! "
              }
            ]
          }
        ],
        "Mois": "janvier",
        "Jour_du_mois": 1,
        "Auteur": null,
        "Heure": "00h01"
      }
    },
    {
      "id": 11,
      "attributes": {
        "Annee": 2021,
        "createdAt": "2023-10-12T13:07:45.107Z",
        "updatedAt": "2023-10-12T13:32:45.128Z",
        "publishedAt": "2023-10-12T13:07:45.971Z",
        "Texte_microfiction": [
          {
            "type": "paragraph",
            "children": [
              {
                "type": "text",
                "text": "Les fêtes de fin d’années me donnent envie de pleurer. Noël, ça passe, je suis grande maintenant. Mais le premier de l’an ! Tous ces plats en trop, ces compliments menteurs, cette plate humeur festive, moi ça me donne envie de gerber. Je ne comprends pas. Ils disent que c'est justement un moyen de nous retrouver ! Mais pourquoi ? A cause de ce putain de calendrier, on affiche nos vies, Qu'est-ce que ça peut leur foutre qu’on réveillonne ou pas. Quand on n'a pas d'amis, pas d’famille, on aime autrement, mais tout seul. Merde alors."
              }
            ]
          }
        ],
        "Mois": "janvier",
        "Jour_du_mois": 1,
        "Auteur": null,
        "Heure": "00h01"
      }
    },
    {
      "id": 12,
      "attributes": {
        "Annee": 1978,
        "createdAt": "2023-10-12T13:08:06.302Z",
        "updatedAt": "2023-10-12T13:08:07.375Z",
        "publishedAt": "2023-10-12T13:08:07.372Z",
        "Texte_microfiction": [
          {
            "type": "paragraph",
            "children": [
              {
                "type": "text",
                "text": "- Cinq, quatre, trois, deux, un…"
              }
            ]
          },
          {
            "type": "paragraph",
            "children": [
              {
                "type": "text",
                "text": "- T’es en retard !"
              }
            ]
          }
        ],
        "Mois": "janvier",
        "Jour_du_mois": 1,
        "Auteur": null,
        "Heure": null
      }
    },
    {
      "id": 13,
      "attributes": {
        "Annee": 2012,
        "createdAt": "2023-10-12T13:08:37.216Z",
        "updatedAt": "2023-10-12T13:08:38.257Z",
        "publishedAt": "2023-10-12T13:08:38.256Z",
        "Texte_microfiction": [
          {
            "type": "paragraph",
            "children": [
              {
                "type": "text",
                "text": "Max fixe Nina. Avec leurs amis, ils viennent de faire le décompte à plein poumons, la tête lui tourne légèrement. "
              }
            ]
          }
        ],
        "Mois": "janvier",
        "Jour_du_mois": 1,
        "Auteur": null,
        "Heure": null
      }
    },
    {
      "id": 14,
      "attributes": {
        "Annee": -732,
        "createdAt": "2023-10-12T13:09:01.460Z",
        "updatedAt": "2023-10-12T13:09:02.768Z",
        "publishedAt": "2023-10-12T13:09:02.764Z",
        "Texte_microfiction": [
          {
            "type": "paragraph",
            "children": [
              {
                "type": "text",
                "text": "Un oiseau passe."
              }
            ]
          }
        ],
        "Mois": "janvier",
        "Jour_du_mois": 1,
        "Auteur": null,
        "Heure": null
      }
    },
    {
      "id": 15,
      "attributes": {
        "Annee": 2012,
        "createdAt": "2023-10-12T13:09:30.255Z",
        "updatedAt": "2023-10-12T13:09:31.670Z",
        "publishedAt": "2023-10-12T13:09:31.668Z",
        "Texte_microfiction": [
          {
            "type": "paragraph",
            "children": [
              {
                "type": "text",
                "text": "Cela fait un an que Nina n’est plus avec Julien. C’est facile à retenir, parce qu’ils ont commencé à sortir ensemble le 1er janvier 2010, ça a fait jaser dans la bande, s’afficher comme ça et se rouler des pelles devant tous leurs amis à la soirée du nouvel an. Max s’était que c’était juste un dérapage entre potes bourrés. Mais cela avait duré. Ironie du sort, Nina et Julien avaient rompu le 1er janvier 2011, de nouveau devant leur bande de postes, après une ultime dispute. L’esclandre avait failli gâcher la fête. Nina était partie en trombe, et Max était resté avec Julien, qui s’entêtait à vouloir célébrer son tout récent célibat en enchaînant les tournées de shots. Max avait pensé à Nina, errant sûrement dans la rue en pleurs. Il s’était imaginé la serrer dans ses bras, il… "
              }
            ]
          }
        ],
        "Mois": "janvier",
        "Jour_du_mois": 1,
        "Auteur": null,
        "Heure": null
      }
    },
    {
      "id": 16,
      "attributes": {
        "Annee": -732,
        "createdAt": "2023-10-12T13:09:59.723Z",
        "updatedAt": "2023-10-12T13:10:00.426Z",
        "publishedAt": "2023-10-12T13:10:00.424Z",
        "Texte_microfiction": [
          {
            "type": "paragraph",
            "children": [
              {
                "type": "text",
                "text": "Un buffle passe. "
              }
            ]
          }
        ],
        "Mois": "janvier",
        "Jour_du_mois": 1,
        "Auteur": null,
        "Heure": null
      }
    },
    {
      "id": 17,
      "attributes": {
        "Annee": 2012,
        "createdAt": "2023-10-12T13:10:22.877Z",
        "updatedAt": "2023-10-12T13:10:24.073Z",
        "publishedAt": "2023-10-12T13:10:24.072Z",
        "Texte_microfiction": [
          {
            "type": "paragraph",
            "children": [
              {
                "type": "text",
                "text": "Un an, c’est suffisant pour tenter quelque chose sans que Julien ne lui en veuille, non ? Surtout que depuis, lui avait enchaîné les histoires. Et puis ce n’était pas comme s’il s’agissait seulement d’attirance physique. Max avait des sentiments pour Nina. Quel con il avait été à l’époque, de se dire que ce n’était pas possible, qu’ils étaient amis… Julien ne s’était pas privé, lui. Nina a dû sentir son regard car elle est désormais tournée vers lui, le regard planté dans le sien. Fébrile, il s’approche, pose sa main sur son épaule. Ses yeux s’attardent sur sa bouche. "
              }
            ]
          }
        ],
        "Mois": "janvier",
        "Jour_du_mois": 1,
        "Auteur": null,
        "Heure": null
      }
    },
    {
      "id": 18,
      "attributes": {
        "Annee": -732,
        "createdAt": "2023-10-12T13:10:43.342Z",
        "updatedAt": "2023-10-12T13:10:43.966Z",
        "publishedAt": "2023-10-12T13:10:43.965Z",
        "Texte_microfiction": [
          {
            "type": "paragraph",
            "children": [
              {
                "type": "text",
                "text": "Une branche casse."
              }
            ]
          }
        ],
        "Mois": "janvier",
        "Jour_du_mois": 1,
        "Auteur": null,
        "Heure": null
      }
    },
    {
      "id": 19,
      "attributes": {
        "Annee": 2012,
        "createdAt": "2023-10-12T13:11:16.582Z",
        "updatedAt": "2023-10-12T13:11:17.992Z",
        "publishedAt": "2023-10-12T13:11:17.989Z",
        "Texte_microfiction": [
          {
            "type": "paragraph",
            "children": [
              {
                "type": "text",
                "text": "- Je peux t’embrasser ?"
              }
            ]
          },
          {
            "type": "paragraph",
            "children": [
              {
                "type": "text",
                "text": "- Ben non, t’as vu du gui au-dessus de nos têtes ? "
              }
            ]
          }
        ],
        "Mois": "janvier",
        "Jour_du_mois": 1,
        "Auteur": null,
        "Heure": null
      }
    },
    {
      "id": 20,
      "attributes": {
        "Annee": -732,
        "createdAt": "2023-10-12T13:11:38.061Z",
        "updatedAt": "2023-10-12T13:11:40.678Z",
        "publishedAt": "2023-10-12T13:11:40.675Z",
        "Texte_microfiction": [
          {
            "type": "paragraph",
            "children": [
              {
                "type": "text",
                "text": "Le lendemain, ce sera pareil. "
              }
            ]
          }
        ],
        "Mois": "janvier",
        "Jour_du_mois": 1,
        "Auteur": null,
        "Heure": null
      }
    },
    {
      "id": 21,
      "attributes": {
        "Annee": 1971,
        "createdAt": "2023-10-12T13:12:22.541Z",
        "updatedAt": "2023-10-12T13:12:23.095Z",
        "publishedAt": "2023-10-12T13:12:23.093Z",
        "Texte_microfiction": [
          {
            "type": "paragraph",
            "children": [
              {
                "type": "text",
                "text": "- J’ai déjà fumé ce soir tout ce que j’ai prévu de garder pour le temps qu’il reste avant qu’on se revoie ici dans un an."
              }
            ]
          }
        ],
        "Mois": "janvier",
        "Jour_du_mois": 1,
        "Auteur": null,
        "Heure": null
      }
    },
    {
      "id": 22,
      "attributes": {
        "Annee": -732,
        "createdAt": "2023-10-12T13:12:41.790Z",
        "updatedAt": "2023-10-12T13:12:43.478Z",
        "publishedAt": "2023-10-12T13:12:43.476Z",
        "Texte_microfiction": [
          {
            "type": "paragraph",
            "children": [
              {
                "type": "text",
                "text": "Le surlendemain, aussi."
              }
            ]
          }
        ],
        "Mois": "janvier",
        "Jour_du_mois": 1,
        "Auteur": null,
        "Heure": null
      }
    },
    {
      "id": 23,
      "attributes": {
        "Annee": 2124,
        "createdAt": "2023-10-12T13:13:02.930Z",
        "updatedAt": "2023-10-12T13:13:03.602Z",
        "publishedAt": "2023-10-12T13:13:03.600Z",
        "Texte_microfiction": [
          {
            "type": "paragraph",
            "children": [
              {
                "type": "text",
                "text": "- L’année prochaine, ce sera mieux, tu crois ?"
              }
            ]
          }
        ],
        "Mois": "janvier",
        "Jour_du_mois": 1,
        "Auteur": null,
        "Heure": null
      }
    },
    {
      "id": 24,
      "attributes": {
        "Annee": 2048,
        "createdAt": "2023-10-12T13:13:51.836Z",
        "updatedAt": "2023-10-12T13:13:52.938Z",
        "publishedAt": "2023-10-12T13:13:52.936Z",
        "Texte_microfiction": [
          {
            "type": "paragraph",
            "children": [
              {
                "type": "text",
                "text": "Il regarde la place et se dit : heureusement que le ginko biloba."
              }
            ]
          }
        ],
        "Mois": "janvier",
        "Jour_du_mois": 1,
        "Auteur": null,
        "Heure": null
      }
    },
    {
      "id": 25,
      "attributes": {
        "Annee": 1909,
        "createdAt": "2023-10-12T13:33:44.197Z",
        "updatedAt": "2023-10-12T13:33:45.132Z",
        "publishedAt": "2023-10-12T13:33:45.129Z",
        "Texte_microfiction": [
          {
            "type": "paragraph",
            "children": [
              {
                "type": "text",
                "text": "Ce n'est pas une heure pour être au lit,"
              }
            ]
          },
          {
            "type": "paragraph",
            "children": [
              {
                "type": "text",
                "text": "mais au moins je ne suis plus debout"
              }
            ]
          },
          {
            "type": "paragraph",
            "children": [
              {
                "type": "text",
                "text": "à faire semblant de m’agiter,"
              }
            ]
          },
          {
            "type": "paragraph",
            "children": [
              {
                "type": "text",
                "text": "à ne pas faire ce qu’il faut faire."
              }
            ]
          },
          {
            "type": "paragraph",
            "children": [
              {
                "type": "text",
                "text": "Le monde me fait mal et les gens m'indiffèrent."
              }
            ]
          },
          {
            "type": "paragraph",
            "children": [
              {
                "type": "text",
                "text": "La vie bouge tout le temps. Moi jamais."
              }
            ]
          },
          {
            "type": "paragraph",
            "children": [
              {
                "type": "text",
                "text": "Pourquoi je retourne dans mon lit ?"
              }
            ]
          },
          {
            "type": "paragraph",
            "children": [
              {
                "type": "text",
                "text": "Comment habiter autrement ?"
              }
            ]
          },
          {
            "type": "paragraph",
            "children": [
              {
                "type": "text",
                "text": "Je ne sais pas faire mon lit."
              }
            ]
          }
        ],
        "Mois": "février",
        "Jour_du_mois": 5,
        "Auteur": null,
        "Heure": "15h04"
      }
    }
  ],
  "meta": {
    "pagination": {
      "page": 1,
      "pageSize": 25,
      "pageCount": 2,
      "total": 47
    }
  }
}